{
  "__schema": {
    "queryType": {
      "name": "QueryType"
    },
    "mutationType": {
      "name": "MutationType"
    },
    "types": [
      {
        "kind": "OBJECT",
        "name": "QueryType",
        "description": "COP GQL Query Type",
        "fields": [
          {
            "name": "readCOP",
            "description": "Read Customer Obsession Plan",
            "args": [
              {
                "name": "clientId",
                "description": "BP Number",
                "type": {
                  "kind": "NON_NULL",
                  "name": null,
                  "ofType": {
                    "kind": "SCALAR",
                    "name": "String",
                    "ofType": null
                  }
                },
                "defaultValue": null
              },
              {
                "name": "copId",
                "description": "COP ID",
                "type": {
                  "kind": "NON_NULL",
                  "name": null,
                  "ofType": {
                    "kind": "SCALAR",
                    "name": "Int",
                    "ofType": null
                  }
                },
                "defaultValue": null
              }
            ],
            "type": {
              "kind": "OBJECT",
              "name": "copExpandedDetailsOutput",
              "ofType": null
            },
            "isDeprecated": false,
            "deprecationReason": ""
          },
          {
            "name": "retrieveCOPList",
            "description": "Read COP List for given Client",
            "args": [
              {
                "name": "clientId",
                "description": "BP Number",
                "type": {
                  "kind": "NON_NULL",
                  "name": null,
                  "ofType": {
                    "kind": "SCALAR",
                    "name": "String",
                    "ofType": null
                  }
                },
                "defaultValue": null
              },
              {
                "name": "archivedCOPList",
                "description": "Archived COP List(RM Unleashed COPs)",
                "type": {
                  "kind": "OBJECT",
                  "name": "booleanEnumType",
                  "ofType": null
                },
                "defaultValue": null
              }
            ],
            "type": {
              "kind": "LIST",
              "name": null,
              "ofType": {
                "kind": "OBJECT",
                "name": "copListOutput",
                "ofType": null
              }
            },
            "isDeprecated": false,
            "deprecationReason": ""
          }
        ],
        "inputFields": null,
        "interfaces": [],
        "enumValues": null,
        "possibleTypes": null
      },
      {
        "kind": "OBJECT",
        "name": "MutationType",
        "description": "COP GQL Mutation Type",
        "fields": [
          {
            "name": "maintainCOP",
            "description": "Maintain COP",
            "args": [
              {
                "name": "clientId",
                "description": "Client Id",
                "type": {
                  "kind": "NON_NULL",
                  "name": null,
                  "ofType": {
                    "kind": "SCALAR",
                    "name": "String",
                    "ofType": null
                  }
                },
                "defaultValue": null
              },
              {
                "name": "copId",
                "description": "COP ID",
                "type": {
                  "kind": "NON_NULL",
                  "name": null,
                  "ofType": {
                    "kind": "SCALAR",
                    "name": "Int",
                    "ofType": null
                  }
                },
                "defaultValue": null
              },
              {
                "name": "goalId",
                "description": "Goal ID",
                "type": {
                  "kind": "LIST",
                  "name": null,
                  "ofType": {
                    "kind": "OBJECT",
                    "name": "copGoalsInput",
                    "ofType": null
                  }
                },
                "defaultValue": null
              },
              {
                "name": "copStatus",
                "description": "COP Status",
                "type": {
                  "kind": "OBJECT",
                  "name": "copStatusEnumType",
                  "ofType": null
                },
                "defaultValue": null
              },
              {
                "name": "precallPlan",
                "description": "COP Precall Plan",
                "type": {
                  "kind": "OBJECT",
                  "name": "maintainCOPPrecallInput",
                  "ofType": null
                },
                "defaultValue": null
              },
              {
                "name": "needs",
                "description": "COP Needs",
                "type": {
                  "kind": "OBJECT",
                  "name": "maintainCOPNeedsInput",
                  "ofType": null
                },
                "defaultValue": null
              },
              {
                "name": "currentState",
                "description": "COP CurrentState",
                "type": {
                  "kind": "LIST",
                  "name": null,
                  "ofType": {
                    "kind": "OBJECT",
                    "name": "maintainCOPCurrentstateInput",
                    "ofType": null
                  }
                },
                "defaultValue": null
              },
              {
                "name": "copComments",
                "description": "COP Comments",
                "type": {
                  "kind": "LIST",
                  "name": null,
                  "ofType": {
                    "kind": "OBJECT",
                    "name": "maintainCOPCommentsInput",
                    "ofType": null
                  }
                },
                "defaultValue": null
              },
              {
                "name": "copArtifactsMarkedforDeletion",
                "description": "COP Artifacts marked for Deletion",
                "type": {
                  "kind": "LIST",
                  "name": null,
                  "ofType": {
                    "kind": "OBJECT",
                    "name": "copArtifactEnumType",
                    "ofType": null
                  }
                },
                "defaultValue": null
              }
            ],
            "type": {
              "kind": "OBJECT",
              "name": "maintainCOPOutput",
              "ofType": null
            },
            "isDeprecated": false,
            "deprecationReason": ""
          },
          {
            "name": "createCOP",
            "description": "Create COP",
            "args": [
              {
                "name": "clientId",
                "description": "Client Id",
                "type": {
                  "kind": "NON_NULL",
                  "name": null,
                  "ofType": {
                    "kind": "SCALAR",
                    "name": "String",
                    "ofType": null
                  }
                },
                "defaultValue": null
              },
              {
                "name": "meetingDate",
                "description": "Meeting Date(Schedule Date)",
                "type": {
                  "kind": "SCALAR",
                  "name": "String",
                  "ofType": null
                },
                "defaultValue": null
              },
              {
                "name": "goalId",
                "description": "Goal ID",
                "type": {
                  "kind": "LIST",
                  "name": null,
                  "ofType": {
                    "kind": "SCALAR",
                    "name": "Int",
                    "ofType": null
                  }
                },
                "defaultValue": null
              },
              {
                "name": "precallPlan",
                "description": "COP Precall Plan",
                "type": {
                  "kind": "OBJECT",
                  "name": "maintainCOPPrecallInput",
                  "ofType": null
                },
                "defaultValue": null
              },
              {
                "name": "needs",
                "description": "COP Needs",
                "type": {
                  "kind": "OBJECT",
                  "name": "maintainCOPNeedsInput",
                  "ofType": null
                },
                "defaultValue": null
              },
              {
                "name": "currentState",
                "description": "COP CurrentState",
                "type": {
                  "kind": "LIST",
                  "name": null,
                  "ofType": {
                    "kind": "OBJECT",
                    "name": "maintainCOPCurrentstateInput",
                    "ofType": null
                  }
                },
                "defaultValue": null
              }
            ],
            "type": {
              "kind": "OBJECT",
              "name": "maintainCOPOutput",
              "ofType": null
            },
            "isDeprecated": false,
            "deprecationReason": ""
          }
        ],
        "inputFields": null,
        "interfaces": [],
        "enumValues": null,
        "possibleTypes": null
      },
      {
        "kind": "OBJECT",
        "name": "__Schema",
        "description": "A GraphQL Introspection defines the capabilities of a GraphQL server. It exposes all available types and directives on the server, the entry points for query, mutation, and subscription operations.",
        "fields": [
          {
            "name": "types",
            "description": "A list of all types supported by this server.",
            "args": [],
            "type": {
              "kind": "NON_NULL",
              "name": null,
              "ofType": {
                "kind": "LIST",
                "name": null,
                "ofType": {
                  "kind": "NON_NULL",
                  "name": null,
                  "ofType": {
                    "kind": "OBJECT",
                    "name": "__Type",
                    "ofType": null
                  }
                }
              }
            },
            "isDeprecated": false,
            "deprecationReason": ""
          },
          {
            "name": "queryType",
            "description": "The type that query operations will be rooted at.",
            "args": [],
            "type": {
              "kind": "NON_NULL",
              "name": null,
              "ofType": {
                "kind": "OBJECT",
                "name": "__Type",
                "ofType": null
              }
            },
            "isDeprecated": false,
            "deprecationReason": ""
          },
          {
            "name": "mutationType",
            "description": "If this server supports mutation, the type that mutation operations will be rooted at.",
            "args": [],
            "type": {
              "kind": "OBJECT",
              "name": "__Type",
              "ofType": null
            },
            "isDeprecated": false,
            "deprecationReason": ""
          },
          {
            "name": "directives",
            "description": "A list of all directives supported by this server.",
            "args": [],
            "type": {
              "kind": "NON_NULL",
              "name": null,
              "ofType": {
                "kind": "LIST",
                "name": null,
                "ofType": {
                  "kind": "NON_NULL",
                  "name": null,
                  "ofType": {
                    "kind": "OBJECT",
                    "name": "__Directive",
                    "ofType": null
                  }
                }
              }
            },
            "isDeprecated": false,
            "deprecationReason": ""
          },
          {
            "name": "subscriptionType",
            "description": "If this server support subscription, the type that subscription operations will be rooted at.",
            "args": [],
            "type": {
              "kind": "OBJECT",
              "name": "__Type",
              "ofType": null
            },
            "isDeprecated": false,
            "deprecationReason": ""
          }
        ],
        "inputFields": null,
        "interfaces": [],
        "enumValues": null,
        "possibleTypes": null
      },
      {
        "kind": "OBJECT",
        "name": "__Type",
        "description": "Type System.",
        "fields": [
          {
            "name": "kind",
            "description": "",
            "args": [],
            "type": {
              "kind": "NON_NULL",
              "name": null,
              "ofType": {
                "kind": "OBJECT",
                "name": "__TypeKind",
                "ofType": null
              }
            },
            "isDeprecated": false,
            "deprecationReason": ""
          },
          {
            "name": "name",
            "description": "",
            "args": [],
            "type": {
              "kind": "SCALAR",
              "name": "String",
              "ofType": null
            },
            "isDeprecated": false,
            "deprecationReason": ""
          },
          {
            "name": "description",
            "description": "",
            "args": [],
            "type": {
              "kind": "SCALAR",
              "name": "String",
              "ofType": null
            },
            "isDeprecated": false,
            "deprecationReason": ""
          },
          {
            "name": "fields",
            "description": "",
            "args": [],
            "type": {
              "kind": "LIST",
              "name": null,
              "ofType": {
                "kind": "OBJECT",
                "name": "__Field",
                "ofType": null
              }
            },
            "isDeprecated": false,
            "deprecationReason": ""
          },
          {
            "name": "interfaces",
            "description": "",
            "args": [],
            "type": {
              "kind": "LIST",
              "name": null,
              "ofType": {
                "kind": "NON_NULL",
                "name": null,
                "ofType": {
                  "kind": "OBJECT",
                  "name": "__Type",
                  "ofType": null
                }
              }
            },
            "isDeprecated": false,
            "deprecationReason": ""
          },
          {
            "name": "possibleTypes",
            "description": "",
            "args": [],
            "type": {
              "kind": "LIST",
              "name": null,
              "ofType": {
                "kind": "NON_NULL",
                "name": null,
                "ofType": {
                  "kind": "OBJECT",
                  "name": "__Type",
                  "ofType": null
                }
              }
            },
            "isDeprecated": false,
            "deprecationReason": ""
          },
          {
            "name": "enumValues",
            "description": "",
            "args": [],
            "type": {
              "kind": "LIST",
              "name": null,
              "ofType": {
                "kind": "NON_NULL",
                "name": null,
                "ofType": {
                  "kind": "OBJECT",
                  "name": "__EnumValue",
                  "ofType": null
                }
              }
            },
            "isDeprecated": false,
            "deprecationReason": ""
          },
          {
            "name": "inputFields",
            "description": "",
            "args": [],
            "type": {
              "kind": "LIST",
              "name": null,
              "ofType": {
                "kind": "NON_NULL",
                "name": null,
                "ofType": {
                  "kind": "OBJECT",
                  "name": "__InputValue",
                  "ofType": null
                }
              }
            },
            "isDeprecated": false,
            "deprecationReason": ""
          },
          {
            "name": "ofType",
            "description": "",
            "args": [],
            "type": {
              "kind": "OBJECT",
              "name": "__Type",
              "ofType": null
            },
            "isDeprecated": false,
            "deprecationReason": ""
          }
        ],
        "inputFields": null,
        "interfaces": [],
        "enumValues": null,
        "possibleTypes": null
      },
      {
        "kind": "ENUM",
        "name": "__TypeKind",
        "description": "An enum describing what kind of type a given __Type is",
        "fields": null,
        "inputFields": null,
        "interfaces": null,
        "enumValues": [
          {
            "name": "SCALAR",
            "description": "Indicates this type is a scalar.",
            "isDeprecated": false,
            "deprecationReason": null
          },
          {
            "name": "OBJECT",
            "description": "Indicates this type is an object. `fields` and `interfaces` are valid fields.",
            "isDeprecated": false,
            "deprecationReason": null
          },
          {
            "name": "INTERFACE",
            "description": "Indicates this type is an interface. `fields` and `possibleTypes` are valid fields.",
            "isDeprecated": false,
            "deprecationReason": null
          },
          {
            "name": "UNION",
            "description": "Indicates this type is a union. `possibleTypes` is a valid field.",
            "isDeprecated": false,
            "deprecationReason": null
          },
          {
            "name": "ENUM",
            "description": "Indicates this type is an enum. `enumValues` is a valid field.",
            "isDeprecated": false,
            "deprecationReason": null
          },
          {
            "name": "INPUT_OBJECT",
            "description": "Indicates this type is an input object. `inputFields` is a valid field.",
            "isDeprecated": false,
            "deprecationReason": null
          },
          {
            "name": "LIST",
            "description": "Indicates this type is a list. `ofType` is a valid field.",
            "isDeprecated": false,
            "deprecationReason": null
          },
          {
            "name": "NON_NULL",
            "description": "Indicates this type is a non-null. `ofType` is a valid field.",
            "isDeprecated": false,
            "deprecationReason": null
          }
        ],
        "possibleTypes": null
      },
      {
        "kind": "OBJECT",
        "name": "__Field",
        "description": "",
        "fields": [
          {
            "name": "name",
            "description": "",
            "args": [],
            "type": {
              "kind": "NON_NULL",
              "name": null,
              "ofType": {
                "kind": "SCALAR",
                "name": "String",
                "ofType": null
              }
            },
            "isDeprecated": false,
            "deprecationReason": ""
          },
          {
            "name": "description",
            "description": "",
            "args": [],
            "type": {
              "kind": "SCALAR",
              "name": "String",
              "ofType": null
            },
            "isDeprecated": false,
            "deprecationReason": ""
          },
          {
            "name": "args",
            "description": "",
            "args": [],
            "type": {
              "kind": "NON_NULL",
              "name": null,
              "ofType": {
                "kind": "LIST",
                "name": null,
                "ofType": {
                  "kind": "NON_NULL",
                  "name": null,
                  "ofType": {
                    "kind": "OBJECT",
                    "name": "__InputValue",
                    "ofType": null
                  }
                }
              }
            },
            "isDeprecated": false,
            "deprecationReason": ""
          },
          {
            "name": "type",
            "description": "",
            "args": [],
            "type": {
              "kind": "NON_NULL",
              "name": null,
              "ofType": {
                "kind": "OBJECT",
                "name": "__Type",
                "ofType": null
              }
            },
            "isDeprecated": false,
            "deprecationReason": ""
          },
          {
            "name": "isDeprecated",
            "description": "",
            "args": [],
            "type": {
              "kind": "NON_NULL",
              "name": null,
              "ofType": {
                "kind": "SCALAR",
                "name": "Boolean",
                "ofType": null
              }
            },
            "isDeprecated": false,
            "deprecationReason": ""
          },
          {
            "name": "deprecationReason",
            "description": "",
            "args": [],
            "type": {
              "kind": "SCALAR",
              "name": "String",
              "ofType": null
            },
            "isDeprecated": false,
            "deprecationReason": ""
          }
        ],
        "inputFields": null,
        "interfaces": [],
        "enumValues": null,
        "possibleTypes": null
      },
      {
        "kind": "OBJECT",
        "name": "__InputValue",
        "description": "",
        "fields": [
          {
            "name": "name",
            "description": "",
            "args": [],
            "type": {
              "kind": "NON_NULL",
              "name": null,
              "ofType": {
                "kind": "SCALAR",
                "name": "String",
                "ofType": null
              }
            },
            "isDeprecated": false,
            "deprecationReason": ""
          },
          {
            "name": "description",
            "description": "",
            "args": [],
            "type": {
              "kind": "SCALAR",
              "name": "String",
              "ofType": null
            },
            "isDeprecated": false,
            "deprecationReason": ""
          },
          {
            "name": "type",
            "description": "",
            "args": [],
            "type": {
              "kind": "NON_NULL",
              "name": null,
              "ofType": {
                "kind": "OBJECT",
                "name": "__Type",
                "ofType": null
              }
            },
            "isDeprecated": false,
            "deprecationReason": ""
          },
          {
            "name": "defaultValue",
            "description": "",
            "args": [],
            "type": {
              "kind": "SCALAR",
              "name": "String",
              "ofType": null
            },
            "isDeprecated": false,
            "deprecationReason": ""
          }
        ],
        "inputFields": null,
        "interfaces": [],
        "enumValues": null,
        "possibleTypes": null
      },
      {
        "kind": "OBJECT",
        "name": "__EnumValue",
        "description": "",
        "fields": [
          {
            "name": "name",
            "description": "",
            "args": [],
            "type": {
              "kind": "NON_NULL",
              "name": null,
              "ofType": {
                "kind": "SCALAR",
                "name": "String",
                "ofType": null
              }
            },
            "isDeprecated": false,
            "deprecationReason": ""
          },
          {
            "name": "description",
            "description": "",
            "args": [],
            "type": {
              "kind": "SCALAR",
              "name": "String",
              "ofType": null
            },
            "isDeprecated": false,
            "deprecationReason": ""
          },
          {
            "name": "isDeprecated",
            "description": "",
            "args": [],
            "type": {
              "kind": "NON_NULL",
              "name": null,
              "ofType": {
                "kind": "SCALAR",
                "name": "Boolean",
                "ofType": null
              }
            },
            "isDeprecated": false,
            "deprecationReason": ""
          },
          {
            "name": "deprecationReason",
            "description": "",
            "args": [],
            "type": {
              "kind": "SCALAR",
              "name": "String",
              "ofType": null
            },
            "isDeprecated": false,
            "deprecationReason": ""
          }
        ],
        "inputFields": null,
        "interfaces": [],
        "enumValues": null,
        "possibleTypes": null
      },
      {
        "kind": "OBJECT",
        "name": "__Directive",
        "description": "",
        "fields": [
          {
            "name": "name",
            "description": "",
            "args": [],
            "type": {
              "kind": "NON_NULL",
              "name": null,
              "ofType": {
                "kind": "SCALAR",
                "name": "String",
                "ofType": null
              }
            },
            "isDeprecated": false,
            "deprecationReason": ""
          },
          {
            "name": "description",
            "description": "",
            "args": [],
            "type": {
              "kind": "SCALAR",
              "name": "String",
              "ofType": null
            },
            "isDeprecated": false,
            "deprecationReason": ""
          },
          {
            "name": "locations",
            "description": "",
            "args": [],
            "type": {
              "kind": "NON_NULL",
              "name": null,
              "ofType": {
                "kind": "LIST",
                "name": null,
                "ofType": {
                  "kind": "OBJECT",
                  "name": "__DirectiveLocation",
                  "ofType": null
                }
              }
            },
            "isDeprecated": false,
            "deprecationReason": ""
          },
          {
            "name": "args",
            "description": "",
            "args": [],
            "type": {
              "kind": "NON_NULL",
              "name": null,
              "ofType": {
                "kind": "LIST",
                "name": null,
                "ofType": {
                  "kind": "NON_NULL",
                  "name": null,
                  "ofType": {
                    "kind": "OBJECT",
                    "name": "__InputValue",
                    "ofType": null
                  }
                }
              }
            },
            "isDeprecated": false,
            "deprecationReason": ""
          },
          {
            "name": "onOperation",
            "description": "",
            "args": [],
            "type": {
              "kind": "SCALAR",
              "name": "Boolean",
              "ofType": null
            },
            "isDeprecated": true,
            "deprecationReason": "Use `locations`."
          },
          {
            "name": "onFragment",
            "description": "",
            "args": [],
            "type": {
              "kind": "SCALAR",
              "name": "Boolean",
              "ofType": null
            },
            "isDeprecated": true,
            "deprecationReason": "Use `locations`."
          },
          {
            "name": "onField",
            "description": "",
            "args": [],
            "type": {
              "kind": "SCALAR",
              "name": "Boolean",
              "ofType": null
            },
            "isDeprecated": true,
            "deprecationReason": "Use `locations`."
          }
        ],
        "inputFields": null,
        "interfaces": [],
        "enumValues": null,
        "possibleTypes": null
      },
      {
        "kind": "ENUM",
        "name": "__DirectiveLocation",
        "description": "An enum describing valid locations where a directive can be placed",
        "fields": null,
        "inputFields": null,
        "interfaces": null,
        "enumValues": [
          {
            "name": "QUERY",
            "description": "Indicates the directive is valid on queries.",
            "isDeprecated": false,
            "deprecationReason": null
          },
          {
            "name": "MUTATION",
            "description": "Indicates the directive is valid on mutations.",
            "isDeprecated": false,
            "deprecationReason": null
          },
          {
            "name": "FIELD",
            "description": "Indicates the directive is valid on fields.",
            "isDeprecated": false,
            "deprecationReason": null
          },
          {
            "name": "FRAGMENT_DEFINITION",
            "description": "Indicates the directive is valid on fragment definitions.",
            "isDeprecated": false,
            "deprecationReason": null
          },
          {
            "name": "FRAGMENT_SPREAD",
            "description": "Indicates the directive is valid on fragment spreads.",
            "isDeprecated": false,
            "deprecationReason": null
          },
          {
            "name": "INLINE_FRAGMENT",
            "description": "Indicates the directive is valid on inline fragments.",
            "isDeprecated": false,
            "deprecationReason": null
          },
          {
            "name": "FIELD_DEFINITION",
            "description": "Indicates the directive is valid on inline fragments.",
            "isDeprecated": false,
            "deprecationReason": null
          },
          {
            "name": "ENUM_VALUE",
            "description": "Indicates the directive is valid on inline fragments.",
            "isDeprecated": false,
            "deprecationReason": null
          }
        ],
        "possibleTypes": null
      },
      {
        "kind": "ENUM",
        "name": "copQcategoryEnumType",
        "description": "",
        "fields": null,
        "inputFields": null,
        "interfaces": null,
        "enumValues": [
          {
            "name": "EXTERNALBUSINESSISSUES",
            "description": "EXTERNALBUSINESSISSUES",
            "isDeprecated": false,
            "deprecationReason": null
          },
          {
            "name": "ORGANIZATIONALBUSINESSISSUES",
            "description": "ORGANIZATIONALBUSINESSISSUES",
            "isDeprecated": false,
            "deprecationReason": null
          },
          {
            "name": "FUNCTIONALBUSINESSISSUES",
            "description": "FUNCTIONALBUSINESSISSUES",
            "isDeprecated": false,
            "deprecationReason": null
          },
          {
            "name": "CURIOSITYQUESTIONS",
            "description": "CURIOSITYQUESTIONS",
            "isDeprecated": false,
            "deprecationReason": null
          },
          {
            "name": "OTHERS",
            "description": "OTHERS",
            "isDeprecated": false,
            "deprecationReason": null
          }
        ],
        "possibleTypes": null
      },
      {
        "kind": "ENUM",
        "name": "copPurposeEnumType",
        "description": "",
        "fields": null,
        "inputFields": null,
        "interfaces": null,
        "enumValues": [
          {
            "name": "ProspectiveCustomer",
            "description": "ProspectiveCustomer",
            "isDeprecated": false,
            "deprecationReason": null
          },
          {
            "name": "NewCustomer",
            "description": "NewCustomer",
            "isDeprecated": false,
            "deprecationReason": null
          },
          {
            "name": "AnnualReview",
            "description": "AnnualReview",
            "isDeprecated": false,
            "deprecationReason": null
          },
          {
            "name": "Generalcheckin",
            "description": "Generalcheckin",
            "isDeprecated": false,
            "deprecationReason": null
          },
          {
            "name": "Other",
            "description": "Other",
            "isDeprecated": false,
            "deprecationReason": null
          }
        ],
        "possibleTypes": null
      },
      {
        "kind": "ENUM",
        "name": "copStatusEnumType",
        "description": "",
        "fields": null,
        "inputFields": null,
        "interfaces": null,
        "enumValues": [
          {
            "name": "COMPLETED",
            "description": "COMPLETED",
            "isDeprecated": false,
            "deprecationReason": null
          },
          {
            "name": "INPROGRESS",
            "description": "INPROGRESS",
            "isDeprecated": false,
            "deprecationReason": null
          }
        ],
        "possibleTypes": null
      },
      {
        "kind": "ENUM",
        "name": "copCommentTypeEnumType",
        "description": "",
        "fields": null,
        "inputFields": null,
        "interfaces": null,
        "enumValues": [
          {
            "name": "PrecallCurrentBusiness",
            "description": "PrecallCurrentBusiness",
            "isDeprecated": false,
            "deprecationReason": null
          },
          {
            "name": "PrecallAnticipatedNeed",
            "description": "PrecallAnticipatedNeed",
            "isDeprecated": false,
            "deprecationReason": null
          },
          {
            "name": "PrecallMeetingOpening",
            "description": "PrecallMeetingOpening",
            "isDeprecated": false,
            "deprecationReason": null
          },
          {
            "name": "PrecallMeetingDiscovery",
            "description": "PrecallMeetingDiscovery",
            "isDeprecated": false,
            "deprecationReason": null
          },
          {
            "name": "PrecallAdditionalRequirements",
            "description": "PrecallAdditionalRequirements",
            "isDeprecated": false,
            "deprecationReason": null
          },
          {
            "name": "Needs",
            "description": "Needs",
            "isDeprecated": false,
            "deprecationReason": null
          }
        ],
        "possibleTypes": null
      },
      {
        "kind": "ENUM",
        "name": "operationEnumType",
        "description": "",
        "fields": null,
        "inputFields": null,
        "interfaces": null,
        "enumValues": [
          {
            "name": "Create",
            "description": "Create",
            "isDeprecated": false,
            "deprecationReason": null
          },
          {
            "name": "Delete",
            "description": "Delete",
            "isDeprecated": false,
            "deprecationReason": null
          },
          {
            "name": "Update",
            "description": "Update",
            "isDeprecated": false,
            "deprecationReason": null
          }
        ],
        "possibleTypes": null
      },
      {
        "kind": "ENUM",
        "name": "copArtifactEnumType",
        "description": "",
        "fields": null,
        "inputFields": null,
        "interfaces": null,
        "enumValues": [
          {
            "name": "COPCOMMENTS",
            "description": "COPCOMMENTS",
            "isDeprecated": false,
            "deprecationReason": null
          },
          {
            "name": "COPCURRENTSTATECUSTOM",
            "description": "COPCURRENTSTATECUSTOM",
            "isDeprecated": false,
            "deprecationReason": null
          },
          {
            "name": "COPCURRENTSTATEPREDEFINED",
            "description": "COPCURRENTSTATEPREDEFINED",
            "isDeprecated": false,
            "deprecationReason": null
          },
          {
            "name": "COPNEEDS",
            "description": "COPNEEDS",
            "isDeprecated": false,
            "deprecationReason": null
          },
          {
            "name": "COPPRECALLPLAN",
            "description": "COPPRECALLPLAN",
            "isDeprecated": false,
            "deprecationReason": null
          }
        ],
        "possibleTypes": null
      },
      {
        "kind": "ENUM",
        "name": "booleanEnumType",
        "description": "",
        "fields": null,
        "inputFields": null,
        "interfaces": null,
        "enumValues": [
          {
            "name": "true",
            "description": "X (true)",
            "isDeprecated": false,
            "deprecationReason": null
          },
          {
            "name": "false",
            "description": " (false)",
            "isDeprecated": false,
            "deprecationReason": null
          }
        ],
        "possibleTypes": null
      },
      {
        "kind": "ENUM",
        "name": "customerGoalTypeEnumType",
        "description": "",
        "fields": null,
        "inputFields": null,
        "interfaces": null,
        "enumValues": [
          {
            "name": "Generalplansactivities",
            "description": "G01 (Generalplansactivities)",
            "isDeprecated": false,
            "deprecationReason": null
          },
          {
            "name": "Createacustomgoal",
            "description": "G02 (Createacustomgoal)",
            "isDeprecated": false,
            "deprecationReason": null
          },
          {
            "name": "Payoffcreditcards",
            "description": "R01 (Payoffcreditcards)",
            "isDeprecated": false,
            "deprecationReason": null
          },
          {
            "name": "Payoffloans",
            "description": "R02 (Payoffloans)",
            "isDeprecated": false,
            "deprecationReason": null
          },
          {
            "name": "Improvemycreditscore",
            "description": "R03 (Improvemycreditscore)",
            "isDeprecated": false,
            "deprecationReason": null
          },
          {
            "name": "Saveforanemergency",
            "description": "S01 (Saveforanemergency)",
            "isDeprecated": false,
            "deprecationReason": null
          },
          {
            "name": "Saveforatrip",
            "description": "S02 (Saveforatrip)",
            "isDeprecated": false,
            "deprecationReason": null
          },
          {
            "name": "Saveforeducation",
            "description": "S03 (Saveforeducation)",
            "isDeprecated": false,
            "deprecationReason": null
          },
          {
            "name": "Saveforretirement",
            "description": "S04 (Saveforretirement)",
            "isDeprecated": false,
            "deprecationReason": null
          },
          {
            "name": "Saveforthefuture",
            "description": "S05 (Saveforthefuture)",
            "isDeprecated": false,
            "deprecationReason": null
          },
          {
            "name": "Buyahome",
            "description": "B01 (Buyahome)",
            "isDeprecated": false,
            "deprecationReason": null
          },
          {
            "name": "Buyavehicle",
            "description": "B02 (Buyavehicle)",
            "isDeprecated": false,
            "deprecationReason": null
          },
          {
            "name": "Improvemyhome",
            "description": "B03 (Improvemyhome)",
            "isDeprecated": false,
            "deprecationReason": null
          }
        ],
        "possibleTypes": null
      },
      {
        "kind": "ENUM",
        "name": "customerGoalCategoryEnumType",
        "description": "",
        "fields": null,
        "inputFields": null,
        "interfaces": null,
        "enumValues": [
          {
            "name": "GENERAL",
            "description": "GC001 (GENERAL)",
            "isDeprecated": false,
            "deprecationReason": null
          },
          {
            "name": "REPAYMENT",
            "description": "GC002 (REPAYMENT)",
            "isDeprecated": false,
            "deprecationReason": null
          },
          {
            "name": "SAVING",
            "description": "GC003 (SAVING)",
            "isDeprecated": false,
            "deprecationReason": null
          },
          {
            "name": "SPENDING",
            "description": "GC004 (SPENDING)",
            "isDeprecated": false,
            "deprecationReason": null
          }
        ],
        "possibleTypes": null
      },
      {
        "kind": "ENUM",
        "name": "goalIdOperationEnumType",
        "description": "",
        "fields": null,
        "inputFields": null,
        "interfaces": null,
        "enumValues": [
          {
            "name": "ADD",
            "description": "C (Add)",
            "isDeprecated": false,
            "deprecationReason": null
          },
          {
            "name": "REMOVE",
            "description": "D (Remove)",
            "isDeprecated": false,
            "deprecationReason": null
          }
        ],
        "possibleTypes": null
      },
      {
        "kind": "OBJECT",
        "name": "copHeaderOutput",
        "description": "",
        "fields": [
          {
            "name": "meetingDate",
            "description": "",
            "args": [],
            "type": {
              "kind": "SCALAR",
              "name": "String",
              "ofType": null
            },
            "isDeprecated": false,
            "deprecationReason": ""
          },
          {
            "name": "status",
            "description": "",
            "args": [],
            "type": {
              "kind": "SCALAR",
              "name": "String",
              "ofType": null
            },
            "isDeprecated": false,
            "deprecationReason": ""
          },
          {
            "name": "completionDate",
            "description": "",
            "args": [],
            "type": {
              "kind": "SCALAR",
              "name": "String",
              "ofType": null
            },
            "isDeprecated": false,
            "deprecationReason": ""
          },
          {
            "name": "createdBy",
            "description": "",
            "args": [],
            "type": {
              "kind": "SCALAR",
              "name": "String",
              "ofType": null
            },
            "isDeprecated": false,
            "deprecationReason": ""
          },
          {
            "name": "completedTasks",
            "description": "",
            "args": [],
            "type": {
              "kind": "SCALAR",
              "name": "Int",
              "ofType": null
            },
            "isDeprecated": false,
            "deprecationReason": ""
          },
          {
            "name": "totalTasks",
            "description": "",
            "args": [],
            "type": {
              "kind": "SCALAR",
              "name": "Int",
              "ofType": null
            },
            "isDeprecated": false,
            "deprecationReason": ""
          },
          {
            "name": "createdByFirstName",
            "description": "",
            "args": [],
            "type": {
              "kind": "SCALAR",
              "name": "String",
              "ofType": null
            },
            "isDeprecated": false,
            "deprecationReason": ""
          },
          {
            "name": "createdByLastName",
            "description": "",
            "args": [],
            "type": {
              "kind": "SCALAR",
              "name": "String",
              "ofType": null
            },
            "isDeprecated": false,
            "deprecationReason": ""
          },
          {
            "name": "createdByMiddleName",
            "description": "",
            "args": [],
            "type": {
              "kind": "SCALAR",
              "name": "String",
              "ofType": null
            },
            "isDeprecated": false,
            "deprecationReason": ""
          },
          {
            "name": "changedByFirstName",
            "description": "",
            "args": [],
            "type": {
              "kind": "SCALAR",
              "name": "String",
              "ofType": null
            },
            "isDeprecated": false,
            "deprecationReason": ""
          },
          {
            "name": "changedByLastName",
            "description": "",
            "args": [],
            "type": {
              "kind": "SCALAR",
              "name": "String",
              "ofType": null
            },
            "isDeprecated": false,
            "deprecationReason": ""
          },
          {
            "name": "changedByMiddleName",
            "description": "",
            "args": [],
            "type": {
              "kind": "SCALAR",
              "name": "String",
              "ofType": null
            },
            "isDeprecated": false,
            "deprecationReason": ""
          },
          {
            "name": "createdOn",
            "description": "",
            "args": [],
            "type": {
              "kind": "SCALAR",
              "name": "String",
              "ofType": null
            },
            "isDeprecated": false,
            "deprecationReason": ""
          },
          {
            "name": "changedOn",
            "description": "",
            "args": [],
            "type": {
              "kind": "SCALAR",
              "name": "String",
              "ofType": null
            },
            "isDeprecated": false,
            "deprecationReason": ""
          },
          {
            "name": "changedBy",
            "description": "",
            "args": [],
            "type": {
              "kind": "SCALAR",
              "name": "String",
              "ofType": null
            },
            "isDeprecated": false,
            "deprecationReason": ""
          }
        ],
        "inputFields": null,
        "interfaces": [],
        "enumValues": null,
        "possibleTypes": null
      },
      {
        "kind": "OBJECT",
        "name": "copPrecallOutput",
        "description": "",
        "fields": [
          {
            "name": "copPurpose",
            "description": "",
            "args": [],
            "type": {
              "kind": "OBJECT",
              "name": "copPurposeEnumType",
              "ofType": null
            },
            "isDeprecated": false,
            "deprecationReason": ""
          },
          {
            "name": "copOtherPurpose",
            "description": "",
            "args": [],
            "type": {
              "kind": "SCALAR",
              "name": "String",
              "ofType": null
            },
            "isDeprecated": false,
            "deprecationReason": ""
          },
          {
            "name": "currentBusinessIssues",
            "description": "",
            "args": [],
            "type": {
              "kind": "SCALAR",
              "name": "String",
              "ofType": null
            },
            "isDeprecated": false,
            "deprecationReason": ""
          },
          {
            "name": "possibleAnticipatedNeeds",
            "description": "",
            "args": [],
            "type": {
              "kind": "SCALAR",
              "name": "String",
              "ofType": null
            },
            "isDeprecated": false,
            "deprecationReason": ""
          },
          {
            "name": "meetingOpening",
            "description": "",
            "args": [],
            "type": {
              "kind": "SCALAR",
              "name": "String",
              "ofType": null
            },
            "isDeprecated": false,
            "deprecationReason": ""
          },
          {
            "name": "meetingDiscovery",
            "description": "",
            "args": [],
            "type": {
              "kind": "SCALAR",
              "name": "String",
              "ofType": null
            },
            "isDeprecated": false,
            "deprecationReason": ""
          },
          {
            "name": "additionalRequirements",
            "description": "",
            "args": [],
            "type": {
              "kind": "SCALAR",
              "name": "String",
              "ofType": null
            },
            "isDeprecated": false,
            "deprecationReason": ""
          },
          {
            "name": "copPurposeText",
            "description": "",
            "args": [],
            "type": {
              "kind": "SCALAR",
              "name": "String",
              "ofType": null
            },
            "isDeprecated": false,
            "deprecationReason": ""
          }
        ],
        "inputFields": null,
        "interfaces": [],
        "enumValues": null,
        "possibleTypes": null
      },
      {
        "kind": "OBJECT",
        "name": "copNeedsOutput",
        "description": "",
        "fields": [
          {
            "name": "needs",
            "description": "",
            "args": [],
            "type": {
              "kind": "SCALAR",
              "name": "String",
              "ofType": null
            },
            "isDeprecated": false,
            "deprecationReason": ""
          }
        ],
        "inputFields": null,
        "interfaces": [],
        "enumValues": null,
        "possibleTypes": null
      },
      {
        "kind": "OBJECT",
        "name": "copCurrentstateOutput",
        "description": "",
        "fields": [
          {
            "name": "categoryId",
            "description": "",
            "args": [],
            "type": {
              "kind": "OBJECT",
              "name": "copQcategoryEnumType",
              "ofType": null
            },
            "isDeprecated": false,
            "deprecationReason": ""
          },
          {
            "name": "predefinedQuestion",
            "description": "",
            "args": [],
            "type": {
              "kind": "SCALAR",
              "name": "String",
              "ofType": null
            },
            "isDeprecated": false,
            "deprecationReason": ""
          },
          {
            "name": "predefinedQuestionId",
            "description": "",
            "args": [],
            "type": {
              "kind": "SCALAR",
              "name": "String",
              "ofType": null
            },
            "isDeprecated": false,
            "deprecationReason": ""
          },
          {
            "name": "predefinedQuestionResponse",
            "description": "",
            "args": [],
            "type": {
              "kind": "SCALAR",
              "name": "String",
              "ofType": null
            },
            "isDeprecated": false,
            "deprecationReason": ""
          },
          {
            "name": "customQuestionId",
            "description": "",
            "args": [],
            "type": {
              "kind": "SCALAR",
              "name": "String",
              "ofType": null
            },
            "isDeprecated": false,
            "deprecationReason": ""
          },
          {
            "name": "customQuestion",
            "description": "",
            "args": [],
            "type": {
              "kind": "SCALAR",
              "name": "String",
              "ofType": null
            },
            "isDeprecated": false,
            "deprecationReason": ""
          },
          {
            "name": "customQuestionResponse",
            "description": "",
            "args": [],
            "type": {
              "kind": "SCALAR",
              "name": "String",
              "ofType": null
            },
            "isDeprecated": false,
            "deprecationReason": ""
          },
          {
            "name": "questionRanking",
            "description": "",
            "args": [],
            "type": {
              "kind": "SCALAR",
              "name": "Int",
              "ofType": null
            },
            "isDeprecated": false,
            "deprecationReason": ""
          }
        ],
        "inputFields": null,
        "interfaces": [],
        "enumValues": null,
        "possibleTypes": null
      },
      {
        "kind": "OBJECT",
        "name": "copTasksOutput",
        "description": "",
        "fields": [
          {
            "name": "taskId",
            "description": "",
            "args": [],
            "type": {
              "kind": "SCALAR",
              "name": "String",
              "ofType": null
            },
            "isDeprecated": false,
            "deprecationReason": ""
          },
          {
            "name": "description",
            "description": "",
            "args": [],
            "type": {
              "kind": "SCALAR",
              "name": "String",
              "ofType": null
            },
            "isDeprecated": false,
            "deprecationReason": ""
          },
          {
            "name": "priority",
            "description": "",
            "args": [],
            "type": {
              "kind": "SCALAR",
              "name": "String",
              "ofType": null
            },
            "isDeprecated": false,
            "deprecationReason": ""
          },
          {
            "name": "completed",
            "description": "",
            "args": [],
            "type": {
              "kind": "SCALAR",
              "name": "String",
              "ofType": null
            },
            "isDeprecated": false,
            "deprecationReason": ""
          },
          {
            "name": "dueDate",
            "description": "",
            "args": [],
            "type": {
              "kind": "SCALAR",
              "name": "String",
              "ofType": null
            },
            "isDeprecated": false,
            "deprecationReason": ""
          },
          {
            "name": "accountId",
            "description": "",
            "args": [],
            "type": {
              "kind": "SCALAR",
              "name": "String",
              "ofType": null
            },
            "isDeprecated": false,
            "deprecationReason": ""
          },
          {
            "name": "accountName",
            "description": "",
            "args": [],
            "type": {
              "kind": "SCALAR",
              "name": "String",
              "ofType": null
            },
            "isDeprecated": false,
            "deprecationReason": ""
          },
          {
            "name": "contactId",
            "description": "",
            "args": [],
            "type": {
              "kind": "SCALAR",
              "name": "String",
              "ofType": null
            },
            "isDeprecated": false,
            "deprecationReason": ""
          },
          {
            "name": "contactName",
            "description": "",
            "args": [],
            "type": {
              "kind": "SCALAR",
              "name": "String",
              "ofType": null
            },
            "isDeprecated": false,
            "deprecationReason": ""
          },
          {
            "name": "responsibleId",
            "description": "",
            "args": [],
            "type": {
              "kind": "SCALAR",
              "name": "String",
              "ofType": null
            },
            "isDeprecated": false,
            "deprecationReason": ""
          },
          {
            "name": "responsibleName",
            "description": "",
            "args": [],
            "type": {
              "kind": "SCALAR",
              "name": "String",
              "ofType": null
            },
            "isDeprecated": false,
            "deprecationReason": ""
          },
          {
            "name": "myTask",
            "description": "",
            "args": [],
            "type": {
              "kind": "SCALAR",
              "name": "String",
              "ofType": null
            },
            "isDeprecated": false,
            "deprecationReason": ""
          },
          {
            "name": "overdue",
            "description": "",
            "args": [],
            "type": {
              "kind": "SCALAR",
              "name": "String",
              "ofType": null
            },
            "isDeprecated": false,
            "deprecationReason": ""
          },
          {
            "name": "status",
            "description": "",
            "args": [],
            "type": {
              "kind": "SCALAR",
              "name": "String",
              "ofType": null
            },
            "isDeprecated": false,
            "deprecationReason": ""
          },
          {
            "name": "processType",
            "description": "",
            "args": [],
            "type": {
              "kind": "SCALAR",
              "name": "String",
              "ofType": null
            },
            "isDeprecated": false,
            "deprecationReason": ""
          },
          {
            "name": "processTypeText",
            "description": "",
            "args": [],
            "type": {
              "kind": "SCALAR",
              "name": "String",
              "ofType": null
            },
            "isDeprecated": false,
            "deprecationReason": ""
          },
          {
            "name": "createdBy",
            "description": "",
            "args": [],
            "type": {
              "kind": "SCALAR",
              "name": "String",
              "ofType": null
            },
            "isDeprecated": false,
            "deprecationReason": ""
          },
          {
            "name": "createdByName",
            "description": "",
            "args": [],
            "type": {
              "kind": "SCALAR",
              "name": "String",
              "ofType": null
            },
            "isDeprecated": false,
            "deprecationReason": ""
          },
          {
            "name": "createdByMe",
            "description": "",
            "args": [],
            "type": {
              "kind": "SCALAR",
              "name": "String",
              "ofType": null
            },
            "isDeprecated": false,
            "deprecationReason": ""
          },
          {
            "name": "copTask",
            "description": "",
            "args": [],
            "type": {
              "kind": "SCALAR",
              "name": "String",
              "ofType": null
            },
            "isDeprecated": false,
            "deprecationReason": ""
          },
          {
            "name": "copId",
            "description": "",
            "args": [],
            "type": {
              "kind": "SCALAR",
              "name": "Int",
              "ofType": null
            },
            "isDeprecated": false,
            "deprecationReason": ""
          }
        ],
        "inputFields": null,
        "interfaces": [],
        "enumValues": null,
        "possibleTypes": null
      },
      {
        "kind": "OBJECT",
        "name": "copCommentsOutput",
        "description": "",
        "fields": [
          {
            "name": "commentedBy",
            "description": "",
            "args": [],
            "type": {
              "kind": "SCALAR",
              "name": "String",
              "ofType": null
            },
            "isDeprecated": false,
            "deprecationReason": ""
          },
          {
            "name": "commentedOn",
            "description": "",
            "args": [],
            "type": {
              "kind": "SCALAR",
              "name": "String",
              "ofType": null
            },
            "isDeprecated": false,
            "deprecationReason": ""
          },
          {
            "name": "commentedAt",
            "description": "",
            "args": [],
            "type": {
              "kind": "SCALAR",
              "name": "String",
              "ofType": null
            },
            "isDeprecated": false,
            "deprecationReason": ""
          },
          {
            "name": "commentsType",
            "description": "",
            "args": [],
            "type": {
              "kind": "OBJECT",
              "name": "copCommentTypeEnumType",
              "ofType": null
            },
            "isDeprecated": false,
            "deprecationReason": ""
          },
          {
            "name": "comments",
            "description": "",
            "args": [],
            "type": {
              "kind": "SCALAR",
              "name": "String",
              "ofType": null
            },
            "isDeprecated": false,
            "deprecationReason": ""
          },
          {
            "name": "commenterFirstName",
            "description": "",
            "args": [],
            "type": {
              "kind": "SCALAR",
              "name": "String",
              "ofType": null
            },
            "isDeprecated": false,
            "deprecationReason": ""
          },
          {
            "name": "commenterLastName",
            "description": "",
            "args": [],
            "type": {
              "kind": "SCALAR",
              "name": "String",
              "ofType": null
            },
            "isDeprecated": false,
            "deprecationReason": ""
          },
          {
            "name": "commenterMiddleName",
            "description": "",
            "args": [],
            "type": {
              "kind": "SCALAR",
              "name": "String",
              "ofType": null
            },
            "isDeprecated": false,
            "deprecationReason": ""
          },
          {
            "name": "changedBy",
            "description": "",
            "args": [],
            "type": {
              "kind": "SCALAR",
              "name": "String",
              "ofType": null
            },
            "isDeprecated": false,
            "deprecationReason": ""
          },
          {
            "name": "changedOn",
            "description": "",
            "args": [],
            "type": {
              "kind": "SCALAR",
              "name": "String",
              "ofType": null
            },
            "isDeprecated": false,
            "deprecationReason": ""
          },
          {
            "name": "changedAt",
            "description": "",
            "args": [],
            "type": {
              "kind": "SCALAR",
              "name": "String",
              "ofType": null
            },
            "isDeprecated": false,
            "deprecationReason": ""
          },
          {
            "name": "changedByFirstName",
            "description": "",
            "args": [],
            "type": {
              "kind": "SCALAR",
              "name": "String",
              "ofType": null
            },
            "isDeprecated": false,
            "deprecationReason": ""
          },
          {
            "name": "changedByLastName",
            "description": "",
            "args": [],
            "type": {
              "kind": "SCALAR",
              "name": "String",
              "ofType": null
            },
            "isDeprecated": false,
            "deprecationReason": ""
          },
          {
            "name": "changedByMiddleName",
            "description": "",
            "args": [],
            "type": {
              "kind": "SCALAR",
              "name": "String",
              "ofType": null
            },
            "isDeprecated": false,
            "deprecationReason": ""
          }
        ],
        "inputFields": null,
        "interfaces": [],
        "enumValues": null,
        "possibleTypes": null
      },
      {
        "kind": "INPUT_OBJECT",
        "name": "copGoalsInput",
        "description": "",
        "fields": null,
        "inputFields": [
          {
            "name": "goalId",
            "description": "",
            "type": {
              "kind": "SCALAR",
              "name": "Int",
              "ofType": null
            },
            "defaultValue": null
          },
          {
            "name": "operation",
            "description": "",
            "type": {
              "kind": "INPUT_OBJECT",
              "name": "goalIdOperationEnumType",
              "ofType": null
            },
            "defaultValue": null
          }
        ],
        "interfaces": [],
        "enumValues": null,
        "possibleTypes": null
      },
      {
        "kind": "OBJECT",
        "name": "copGoalsOutput",
        "description": "",
        "fields": [
          {
            "name": "goalId",
            "description": "",
            "args": [],
            "type": {
              "kind": "SCALAR",
              "name": "Int",
              "ofType": null
            },
            "isDeprecated": false,
            "deprecationReason": ""
          },
          {
            "name": "goalType",
            "description": "",
            "args": [],
            "type": {
              "kind": "OBJECT",
              "name": "customerGoalTypeEnumType",
              "ofType": null
            },
            "isDeprecated": false,
            "deprecationReason": ""
          },
          {
            "name": "goalCategory",
            "description": "",
            "args": [],
            "type": {
              "kind": "OBJECT",
              "name": "customerGoalCategoryEnumType",
              "ofType": null
            },
            "isDeprecated": false,
            "deprecationReason": ""
          },
          {
            "name": "goalTypeText",
            "description": "",
            "args": [],
            "type": {
              "kind": "SCALAR",
              "name": "String",
              "ofType": null
            },
            "isDeprecated": false,
            "deprecationReason": ""
          },
          {
            "name": "goalCategoryText",
            "description": "",
            "args": [],
            "type": {
              "kind": "SCALAR",
              "name": "String",
              "ofType": null
            },
            "isDeprecated": false,
            "deprecationReason": ""
          }
        ],
        "inputFields": null,
        "interfaces": [],
        "enumValues": null,
        "possibleTypes": null
      },
      {
        "kind": "OBJECT",
        "name": "maintainCOPOutput",
        "description": "",
        "fields": [
          {
            "name": "clientId",
            "description": "",
            "args": [],
            "type": {
              "kind": "SCALAR",
              "name": "String",
              "ofType": null
            },
            "isDeprecated": false,
            "deprecationReason": ""
          },
          {
            "name": "copId",
            "description": "",
            "args": [],
            "type": {
              "kind": "SCALAR",
              "name": "Int",
              "ofType": null
            },
            "isDeprecated": false,
            "deprecationReason": ""
          },
          {
            "name": "messageType",
            "description": "",
            "args": [],
            "type": {
              "kind": "SCALAR",
              "name": "String",
              "ofType": null
            },
            "isDeprecated": false,
            "deprecationReason": ""
          },
          {
            "name": "message",
            "description": "",
            "args": [],
            "type": {
              "kind": "SCALAR",
              "name": "String",
              "ofType": null
            },
            "isDeprecated": false,
            "deprecationReason": ""
          }
        ],
        "inputFields": null,
        "interfaces": [],
        "enumValues": null,
        "possibleTypes": null
      },
      {
        "kind": "INPUT_OBJECT",
        "name": "maintainCOPPrecallInput",
        "description": "",
        "fields": null,
        "inputFields": [
          {
            "name": "copPurpose",
            "description": "",
            "type": {
              "kind": "INPUT_OBJECT",
              "name": "copPurposeEnumType",
              "ofType": null
            },
            "defaultValue": null
          },
          {
            "name": "copOtherPurpose",
            "description": "",
            "type": {
              "kind": "SCALAR",
              "name": "String",
              "ofType": null
            },
            "defaultValue": null
          },
          {
            "name": "currentBusinessIssues",
            "description": "",
            "type": {
              "kind": "SCALAR",
              "name": "String",
              "ofType": null
            },
            "defaultValue": null
          },
          {
            "name": "possibleAnticipatedNeeds",
            "description": "",
            "type": {
              "kind": "SCALAR",
              "name": "String",
              "ofType": null
            },
            "defaultValue": null
          },
          {
            "name": "meetingOpening",
            "description": "",
            "type": {
              "kind": "SCALAR",
              "name": "String",
              "ofType": null
            },
            "defaultValue": null
          },
          {
            "name": "meetingDiscovery",
            "description": "",
            "type": {
              "kind": "SCALAR",
              "name": "String",
              "ofType": null
            },
            "defaultValue": null
          },
          {
            "name": "additionalRequirements",
            "description": "",
            "type": {
              "kind": "SCALAR",
              "name": "String",
              "ofType": null
            },
            "defaultValue": null
          }
        ],
        "interfaces": [],
        "enumValues": null,
        "possibleTypes": null
      },
      {
        "kind": "INPUT_OBJECT",
        "name": "maintainCOPNeedsInput",
        "description": "",
        "fields": null,
        "inputFields": [
          {
            "name": "needs",
            "description": "",
            "type": {
              "kind": "SCALAR",
              "name": "String",
              "ofType": null
            },
            "defaultValue": null
          }
        ],
        "interfaces": [],
        "enumValues": null,
        "possibleTypes": null
      },
      {
        "kind": "INPUT_OBJECT",
        "name": "maintainCOPCurrentstateInput",
        "description": "",
        "fields": null,
        "inputFields": [
          {
            "name": "categoryId",
            "description": "",
            "type": {
              "kind": "INPUT_OBJECT",
              "name": "copQcategoryEnumType",
              "ofType": null
            },
            "defaultValue": null
          },
          {
            "name": "predefinedQuestionId",
            "description": "",
            "type": {
              "kind": "SCALAR",
              "name": "String",
              "ofType": null
            },
            "defaultValue": null
          },
          {
            "name": "predefinedQuestionResponse",
            "description": "",
            "type": {
              "kind": "SCALAR",
              "name": "String",
              "ofType": null
            },
            "defaultValue": null
          },
          {
            "name": "customQuestionId",
            "description": "",
            "type": {
              "kind": "SCALAR",
              "name": "String",
              "ofType": null
            },
            "defaultValue": null
          },
          {
            "name": "customQuestion",
            "description": "",
            "type": {
              "kind": "SCALAR",
              "name": "String",
              "ofType": null
            },
            "defaultValue": null
          },
          {
            "name": "customQuestionResponse",
            "description": "",
            "type": {
              "kind": "SCALAR",
              "name": "String",
              "ofType": null
            },
            "defaultValue": null
          },
          {
            "name": "questionRanking",
            "description": "",
            "type": {
              "kind": "SCALAR",
              "name": "Int",
              "ofType": null
            },
            "defaultValue": null
          }
        ],
        "interfaces": [],
        "enumValues": null,
        "possibleTypes": null
      },
      {
        "kind": "INPUT_OBJECT",
        "name": "maintainCOPCommentsInput",
        "description": "",
        "fields": null,
        "inputFields": [
          {
            "name": "commentsType",
            "description": "",
            "type": {
              "kind": "NON_NULL",
              "name": null,
              "ofType": {
                "kind": "INPUT_OBJECT",
                "name": "copCommentTypeEnumType",
                "ofType": null
              }
            },
            "defaultValue": null
          },
          {
            "name": "comments",
            "description": "",
            "type": {
              "kind": "NON_NULL",
              "name": null,
              "ofType": {
                "kind": "SCALAR",
                "name": "String",
                "ofType": null
              }
            },
            "defaultValue": null
          },
          {
            "name": "commentedBy",
            "description": "",
            "type": {
              "kind": "SCALAR",
              "name": "String",
              "ofType": null
            },
            "defaultValue": null
          },
          {
            "name": "commentedOn",
            "description": "",
            "type": {
              "kind": "SCALAR",
              "name": "String",
              "ofType": null
            },
            "defaultValue": null
          },
          {
            "name": "commentedAt",
            "description": "",
            "type": {
              "kind": "SCALAR",
              "name": "String",
              "ofType": null
            },
            "defaultValue": null
          },
          {
            "name": "operation",
            "description": "",
            "type": {
              "kind": "INPUT_OBJECT",
              "name": "operationEnumType",
              "ofType": null
            },
            "defaultValue": null
          }
        ],
        "interfaces": [],
        "enumValues": null,
        "possibleTypes": null
      },
      {
        "kind": "OBJECT",
        "name": "messageLogOutput",
        "description": "",
        "fields": [
          {
            "name": "messageType",
            "description": "",
            "args": [],
            "type": {
              "kind": "SCALAR",
              "name": "String",
              "ofType": null
            },
            "isDeprecated": false,
            "deprecationReason": ""
          },
          {
            "name": "message",
            "description": "",
            "args": [],
            "type": {
              "kind": "SCALAR",
              "name": "String",
              "ofType": null
            },
            "isDeprecated": false,
            "deprecationReason": ""
          }
        ],
        "inputFields": null,
        "interfaces": [],
        "enumValues": null,
        "possibleTypes": null
      },
      {
        "kind": "OBJECT",
        "name": "copListOutput",
        "description": "",
        "fields": [
          {
            "name": "copId",
            "description": "",
            "args": [],
            "type": {
              "kind": "SCALAR",
              "name": "Int",
              "ofType": null
            },
            "isDeprecated": false,
            "deprecationReason": ""
          },
          {
            "name": "meetingDate",
            "description": "",
            "args": [],
            "type": {
              "kind": "SCALAR",
              "name": "String",
              "ofType": null
            },
            "isDeprecated": false,
            "deprecationReason": ""
          },
          {
            "name": "status",
            "description": "",
            "args": [],
            "type": {
              "kind": "SCALAR",
              "name": "String",
              "ofType": null
            },
            "isDeprecated": false,
            "deprecationReason": ""
          },
          {
            "name": "completionDate",
            "description": "",
            "args": [],
            "type": {
              "kind": "SCALAR",
              "name": "String",
              "ofType": null
            },
            "isDeprecated": false,
            "deprecationReason": ""
          },
          {
            "name": "createdBy",
            "description": "",
            "args": [],
            "type": {
              "kind": "SCALAR",
              "name": "String",
              "ofType": null
            },
            "isDeprecated": false,
            "deprecationReason": ""
          },
          {
            "name": "createdByName",
            "description": "",
            "args": [],
            "type": {
              "kind": "SCALAR",
              "name": "String",
              "ofType": null
            },
            "isDeprecated": false,
            "deprecationReason": ""
          },
          {
            "name": "completedTasks",
            "description": "",
            "args": [],
            "type": {
              "kind": "SCALAR",
              "name": "Int",
              "ofType": null
            },
            "isDeprecated": false,
            "deprecationReason": ""
          },
          {
            "name": "totalTasks",
            "description": "",
            "args": [],
            "type": {
              "kind": "SCALAR",
              "name": "Int",
              "ofType": null
            },
            "isDeprecated": false,
            "deprecationReason": ""
          },
          {
            "name": "purpose",
            "description": "",
            "args": [],
            "type": {
              "kind": "SCALAR",
              "name": "String",
              "ofType": null
            },
            "isDeprecated": false,
            "deprecationReason": ""
          },
          {
            "name": "otherPurpose",
            "description": "",
            "args": [],
            "type": {
              "kind": "SCALAR",
              "name": "String",
              "ofType": null
            },
            "isDeprecated": false,
            "deprecationReason": ""
          }
        ],
        "inputFields": null,
        "interfaces": [],
        "enumValues": null,
        "possibleTypes": null
      },
      {
        "kind": "OBJECT",
        "name": "copExpandedDetailsOutput",
        "description": "",
        "fields": [
          {
            "name": "COPHeader",
            "description": "",
            "args": [],
            "type": {
              "kind": "OBJECT",
              "name": "copHeaderOutput",
              "ofType": null
            },
            "isDeprecated": false,
            "deprecationReason": ""
          },
          {
            "name": "COPPrecallPlan",
            "description": "",
            "args": [],
            "type": {
              "kind": "OBJECT",
              "name": "copPrecallOutput",
              "ofType": null
            },
            "isDeprecated": false,
            "deprecationReason": ""
          },
          {
            "name": "COPNeeds",
            "description": "",
            "args": [],
            "type": {
              "kind": "OBJECT",
              "name": "copNeedsOutput",
              "ofType": null
            },
            "isDeprecated": false,
            "deprecationReason": ""
          },
          {
            "name": "COPCurrentState",
            "description": "",
            "args": [],
            "type": {
              "kind": "LIST",
              "name": null,
              "ofType": {
                "kind": "OBJECT",
                "name": "copCurrentstateOutput",
                "ofType": null
              }
            },
            "isDeprecated": false,
            "deprecationReason": ""
          },
          {
            "name": "COPTasks",
            "description": "",
            "args": [],
            "type": {
              "kind": "LIST",
              "name": null,
              "ofType": {
                "kind": "OBJECT",
                "name": "copTasksOutput",
                "ofType": null
              }
            },
            "isDeprecated": false,
            "deprecationReason": ""
          },
          {
            "name": "COPComments",
            "description": "",
            "args": [],
            "type": {
              "kind": "LIST",
              "name": null,
              "ofType": {
                "kind": "OBJECT",
                "name": "copCommentsOutput",
                "ofType": null
              }
            },
            "isDeprecated": false,
            "deprecationReason": ""
          },
          {
            "name": "COPGoals",
            "description": "",
            "args": [],
            "type": {
              "kind": "LIST",
              "name": null,
              "ofType": {
                "kind": "OBJECT",
                "name": "copGoalsOutput",
                "ofType": null
              }
            },
            "isDeprecated": false,
            "deprecationReason": ""
          }
        ],
        "inputFields": null,
        "interfaces": [],
        "enumValues": null,
        "possibleTypes": null
      },
      {
        "kind": "SCALAR",
        "name": "ID",
        "description": "Built-in ID",
        "fields": null,
        "inputFields": null,
        "interfaces": null,
        "enumValues": null,
        "possibleTypes": null
      },
      {
        "kind": "SCALAR",
        "name": "String",
        "description": "Built-in String",
        "fields": null,
        "inputFields": null,
        "interfaces": null,
        "enumValues": null,
        "possibleTypes": null
      },
      {
        "kind": "SCALAR",
        "name": "Boolean",
        "description": "Built-in Boolean",
        "fields": null,
        "inputFields": null,
        "interfaces": null,
        "enumValues": null,
        "possibleTypes": null
      },
      {
        "kind": "SCALAR",
        "name": "Int",
        "description": "Built-in Int",
        "fields": null,
        "inputFields": null,
        "interfaces": null,
        "enumValues": null,
        "possibleTypes": null
      },
      {
        "kind": "SCALAR",
        "name": "Float",
        "description": "Built-in Float",
        "fields": null,
        "inputFields": null,
        "interfaces": null,
        "enumValues": null,
        "possibleTypes": null
      }
    ],
    "directives": [
      {
        "name": "include",
        "description": "Directs the executor to include this field or fragment only when the `if` argument is true",
        "locations": [
          "FIELD",
          "FRAGMENT_SPREAD",
          "INLINE_FRAGMENT"
        ],
        "args": [
          {
            "name": "if",
            "description": "Included when true.",
            "type": {
              "kind": "NON_NULL",
              "name": null,
              "ofType": {
                "kind": "SCALAR",
                "name": "Boolean",
                "ofType": null
              }
            },
            "defaultValue": null
          }
        ]
      },
      {
        "name": "skip",
        "description": "Directs the executor to skip this field or fragment when the `if` argument is true.",
        "locations": [
          "FIELD",
          "FRAGMENT_SPREAD",
          "INLINE_FRAGMENT"
        ],
        "args": [
          {
            "name": "if",
            "description": "Skipped when true.",
            "type": {
              "kind": "NON_NULL",
              "name": null,
              "ofType": {
                "kind": "SCALAR",
                "name": "Boolean",
                "ofType": null
              }
            },
            "defaultValue": null
          }
        ]
      },
      {
        "name": "deprecated",
        "description": "Marks an element of a GraphQL schema as no longer supported.",
        "locations": [
          "FIELD_DEFINITION",
          "ENUM_VALUE"
        ],
        "args": [
          {
            "name": "reason",
            "description": "Explains why this element was deprecated,usually also including a suggestion for how to access supported similar data.Formatted in [Markdown](https://daringfireball.net/projects/markdown/).",
            "type": {
              "kind": "SCALAR",
              "name": "String",
              "ofType": null
            },
            "defaultValue": "\"No longer supported\""
          }
        ]
      }
    ]
  }
}
